1 2 2 2 2 2 2 2 2 2 
0 1 2 3 4 5 6 7 8 9 
0 1 2 3 4 5 6 7 8 9 
0 5 2 4 4 5 8 9 8 9 
0 1 2 3 3 1 6 7 6 7 
0 3 2 3 4 4 7 7 9 9 
0 1 2 1 5 5 6 6 8 5 
0 6 2 7 9 8 6 7 8 9 
0 1 2 3 4 5 1 3 5 4 
0 2 2 2 2 2 2 2 2 2 
0 2 2 2 2 2 2 2 2 2 
