0 1 2 3 4 5 6 7 8 9 10 11 12 13 14 15 16 17 9 
0 1 2 3 4 5 6 7 8 9 10 11 12 13 14 15 16 8 18 
0 1 2 3 4 5 6 7 8 9 10 11 12 13 14 15 7 17 18 
0 1 2 3 4 5 6 7 8 9 10 11 12 13 14 6 16 17 18 
0 1 2 3 4 5 6 7 8 9 10 11 12 13 5 15 16 17 18 
0 1 2 3 4 5 6 7 8 9 10 11 12 4 14 15 16 17 18 
0 1 2 3 4 5 6 7 8 9 10 11 3 13 14 15 16 17 18 
0 1 2 3 4 5 6 7 8 9 10 2 12 13 14 15 16 17 18 
0 1 2 3 4 5 6 7 8 9 1 11 12 13 14 15 16 17 18 
0 10 11 12 13 14 15 16 17 18 10 11 12 13 14 15 16 17 18 
18 1 2 3 4 5 6 7 8 9 10 11 12 13 14 15 16 17 18 
17 1 2 3 4 5 6 7 8 9 10 11 12 13 14 15 16 17 18 
16 1 2 3 4 5 6 7 8 9 10 11 12 13 14 15 16 17 18 
15 1 2 3 4 5 6 7 8 9 10 11 12 13 14 15 16 17 18 
14 1 2 3 4 5 6 7 8 9 10 11 12 13 14 15 16 17 18 
13 1 2 3 4 5 6 7 8 9 10 11 12 13 14 15 16 17 18 
12 1 2 3 4 5 6 7 8 9 10 11 12 13 14 15 16 17 18 
11 1 2 3 4 5 6 7 8 9 10 11 12 13 14 15 16 17 18 
10 1 2 3 4 5 6 7 8 9 10 11 12 13 14 15 16 17 18 
