31 30 29 28 25 26 27 28 29 28 30 29 30 25 26 27 30 25 26 27 29 25 26 27 28 25 26 27 28 29 30 31 
31 30 29 28 25 26 27 28 29 28 30 29 30 25 26 27 30 25 26 27 29 25 26 27 28 25 26 27 28 29 30 31 
31 30 29 28 25 26 27 28 29 28 30 29 30 25 26 27 30 25 26 27 29 25 26 27 28 25 26 27 28 29 30 31 
4 16 8 7 13 14 15 7 8 7 16 8 16 13 14 15 16 13 14 15 8 13 14 15 7 13 14 15 7 8 16 31 
5 10 20 9 17 18 19 9 20 9 10 20 10 17 18 19 10 17 18 19 20 17 18 19 9 17 18 19 9 20 10 31 
6 12 11 24 21 22 23 24 11 24 12 11 12 21 22 23 12 21 22 23 11 21 22 23 24 21 22 23 24 11 12 31 
0 30 29 28 25 26 27 28 29 28 30 29 30 25 26 27 30 25 26 27 29 25 26 27 28 25 26 27 28 29 30 31 
31 30 29 28 1 26 27 28 29 28 30 29 30 1 26 27 30 1 26 27 29 1 26 27 28 1 26 27 28 29 30 31 
31 30 29 28 25 2 27 28 29 28 30 29 30 25 2 27 30 25 2 27 29 25 2 27 28 25 2 27 28 29 30 31 
31 30 29 28 25 26 3 28 29 28 30 29 30 25 26 3 30 25 26 3 29 25 26 3 28 25 26 3 28 29 30 31 
