49 48 47 46 45 41 42 43 44 45 46 47 45 46 48 45 47 48 46 47 48 41 42 43 44 48 41 42 43 44 47 41 42 43 44 46 41 42 43 44 45 41 42 43 44 45 46 47 48 49 
49 48 47 46 45 41 42 43 44 45 46 47 45 46 48 45 47 48 46 47 48 41 42 43 44 48 41 42 43 44 47 41 42 43 44 46 41 42 43 44 45 41 42 43 44 45 46 47 48 49 
49 48 47 46 45 41 42 43 44 45 46 47 45 46 48 45 47 48 46 47 48 41 42 43 44 48 41 42 43 44 47 41 42 43 44 46 41 42 43 44 45 41 42 43 44 45 46 47 48 49 
49 48 47 46 45 41 42 43 44 45 46 47 45 46 48 45 47 48 46 47 48 41 42 43 44 48 41 42 43 44 47 41 42 43 44 46 41 42 43 44 45 41 42 43 44 45 46 47 48 49 
5 25 11 10 9 21 22 23 24 9 10 11 9 10 25 9 11 25 10 11 25 21 22 23 24 25 21 22 23 24 11 21 22 23 24 10 21 22 23 24 9 21 22 23 24 9 10 11 25 49 
6 14 30 13 12 26 27 28 29 12 13 30 12 13 14 12 30 14 13 30 14 26 27 28 29 14 26 27 28 29 30 26 27 28 29 13 26 27 28 29 12 26 27 28 29 12 13 30 14 49 
7 17 16 35 15 31 32 33 34 15 35 16 15 35 17 15 16 17 35 16 17 31 32 33 34 17 31 32 33 34 16 31 32 33 34 35 31 32 33 34 15 31 32 33 34 15 35 16 17 49 
8 20 19 18 40 36 37 38 39 40 18 19 40 18 20 40 19 20 18 19 20 36 37 38 39 20 36 37 38 39 19 36 37 38 39 18 36 37 38 39 40 36 37 38 39 40 18 19 20 49 
0 48 47 46 45 41 42 43 44 45 46 47 45 46 48 45 47 48 46 47 48 41 42 43 44 48 41 42 43 44 47 41 42 43 44 46 41 42 43 44 45 41 42 43 44 45 46 47 48 49 
49 48 47 46 45 1 42 43 44 45 46 47 45 46 48 45 47 48 46 47 48 1 42 43 44 48 1 42 43 44 47 1 42 43 44 46 1 42 43 44 45 1 42 43 44 45 46 47 48 49 
49 48 47 46 45 41 2 43 44 45 46 47 45 46 48 45 47 48 46 47 48 41 2 43 44 48 41 2 43 44 47 41 2 43 44 46 41 2 43 44 45 41 2 43 44 45 46 47 48 49 
49 48 47 46 45 41 42 3 44 45 46 47 45 46 48 45 47 48 46 47 48 41 42 3 44 48 41 42 3 44 47 41 42 3 44 46 41 42 3 44 45 41 42 3 44 45 46 47 48 49 
49 48 47 46 45 41 42 43 4 45 46 47 45 46 48 45 47 48 46 47 48 41 42 43 4 48 41 42 43 4 47 41 42 43 4 46 41 42 43 4 45 41 42 43 4 45 46 47 48 49 
