1 2 2 2 2 2 2 2 2 2 2 2 2 2 2 2 2 2 2 2 2 2 2 2 2 2 2 2 2 2 2 2 2 2 2 2 2 2 2 2 2 2 2 2 2 2 2 2 2 2 2 2 2 2 2 2 2 2 2 2 2 2 2 2 2 2 2 2 2 2 2 2 2 2 2 2 2 2 2 2 2 
2 2 2 2 2 2 19 2 2 2 2 2 2 2 2 2 2 2 2 2 19 2 19 19 19 19 19 2 2 19 19 19 2 2 2 2 19 2 19 19 2 2 2 19 2 2 2 2 2 2 2 19 2 2 2 2 2 2 19 2 19 19 2 19 19 2 2 2 2 2 2 2 2 2 2 19 2 2 2 2 2 
2 2 2 4 2 2 4 2 2 2 2 2 2 2 2 2 2 2 2 2 4 2 4 4 4 4 4 2 2 4 4 4 2 2 2 2 4 2 4 4 2 2 2 4 2 2 2 2 2 2 2 4 2 2 2 2 2 2 4 2 4 4 2 4 4 2 2 2 2 2 2 2 2 2 2 4 2 2 2 2 2 
2 2 2 5 2 2 2 2 2 2 2 2 2 2 2 2 2 2 2 2 2 2 2 2 2 2 2 2 2 2 2 2 2 2 2 2 2 2 2 2 2 2 2 2 2 2 2 2 2 2 2 2 2 2 2 2 2 2 2 2 2 2 2 2 2 2 2 2 2 2 2 2 2 2 2 2 2 2 2 2 2 
2 3 2 2 0 6 2 20 6 28 6 22 23 24 25 6 26 6 19 29 2 2 2 2 2 2 2 29 2 2 2 2 2 2 2 2 2 2 2 2 2 2 2 2 2 2 2 2 2 2 2 2 2 2 2 2 2 2 2 2 2 2 2 2 2 2 2 2 2 2 2 2 2 2 2 2 2 2 2 2 2 
2 2 2 2 2 2 2 2 2 2 2 2 2 2 2 2 2 2 2 2 2 2 2 2 2 2 2 2 2 2 2 2 52 52 52 2 2 2 2 2 2 2 2 2 2 64 2 65 65 65 2 2 70 71 71 71 2 2 2 2 2 2 2 2 2 70 78 78 78 2 64 79 2 2 2 2 2 2 79 64 2 
2 2 2 2 2 2 2 2 2 2 2 2 2 2 2 2 2 2 2 2 2 6 2 2 2 2 2 2 6 2 2 2 2 2 2 20 2 22 2 2 23 24 25 2 26 2 30 2 2 2 31 2 2 2 2 2 36 38 2 39 2 2 43 2 2 2 2 2 2 51 2 2 58 60 61 2 63 64 2 2 75 
2 2 2 2 2 7 20 2 2 2 2 2 2 2 2 2 2 2 2 2 30 2 37 32 33 34 43 2 2 2 30 30 2 2 2 2 30 2 57 59 2 2 2 60 2 2 2 2 2 2 2 30 2 2 2 2 2 2 72 2 60 60 2 60 64 2 2 2 2 2 2 2 2 2 2 60 2 2 2 2 2 
2 2 2 2 2 8 6 2 2 2 2 2 2 2 2 2 2 2 2 2 20 2 22 23 24 25 26 2 2 2 30 31 2 2 2 2 36 2 38 39 2 2 2 43 2 2 2 2 2 2 2 51 2 2 2 2 2 2 58 2 60 61 2 63 64 2 2 2 2 2 2 2 2 2 2 75 2 2 2 2 2 
2 2 2 2 2 9 21 2 2 2 2 2 2 2 2 2 2 2 2 2 31 2 37 40 41 42 26 2 2 2 30 31 2 2 2 2 51 2 57 59 2 2 2 61 2 2 2 2 2 2 2 51 2 2 2 2 2 2 72 2 60 61 2 75 64 2 2 2 2 2 2 2 2 2 2 75 2 2 2 2 2 
2 2 2 2 2 10 6 2 2 2 2 2 2 2 2 2 2 2 2 2 30 2 22 23 24 25 26 2 2 2 30 30 2 2 2 2 30 2 38 39 2 2 2 60 2 2 2 2 2 2 2 30 2 2 2 2 2 2 58 2 60 60 2 60 64 2 2 2 2 2 2 2 2 2 2 60 2 2 2 2 2 
2 2 2 2 2 11 22 2 2 2 2 2 2 2 2 2 2 2 2 2 22 2 38 22 22 22 44 2 2 2 22 22 2 2 2 2 22 2 38 38 2 2 2 62 2 2 2 2 2 2 2 22 2 2 2 2 2 2 38 2 73 74 2 76 22 2 2 2 2 2 2 2 2 2 2 80 2 2 2 2 2 
2 2 2 2 2 2 2 2 2 2 2 2 2 2 2 2 2 2 2 2 2 2 39 2 2 2 44 2 2 2 2 2 2 2 2 2 2 2 58 2 2 2 2 62 2 2 2 2 2 2 2 2 2 2 2 2 2 2 2 2 73 74 2 76 2 2 2 2 2 2 2 2 2 2 2 80 2 2 2 2 2 
2 2 2 2 2 2 2 2 2 2 2 2 2 2 2 2 2 2 2 2 2 2 39 2 2 2 44 2 2 2 2 2 2 2 2 2 2 2 58 2 2 2 2 62 2 2 2 2 2 2 2 2 2 2 2 2 2 2 2 2 73 74 2 76 2 2 2 2 2 2 2 2 2 2 2 80 2 2 2 2 2 
2 2 2 2 2 12 23 2 2 2 2 2 2 2 2 2 2 2 2 2 32 2 37 23 23 23 44 2 2 2 45 47 2 2 2 2 53 2 57 59 2 2 2 62 2 2 2 2 2 2 2 66 2 2 2 2 2 2 72 2 73 74 2 76 77 2 2 2 2 2 2 2 2 2 2 80 2 2 2 2 2 
2 2 2 2 2 13 24 2 2 2 2 2 2 2 2 2 2 2 2 2 33 2 37 24 24 24 44 2 2 2 45 48 2 2 2 2 54 2 57 59 2 2 2 62 2 2 2 2 2 2 2 67 2 2 2 2 2 2 72 2 73 74 2 76 77 2 2 2 2 2 2 2 2 2 2 80 2 2 2 2 2 
2 2 2 2 2 14 25 2 2 2 2 2 2 2 2 2 2 2 2 2 34 2 37 25 25 25 44 2 2 2 45 49 2 2 2 2 55 2 57 59 2 2 2 62 2 2 2 2 2 2 2 68 2 2 2 2 2 2 72 2 73 74 2 76 77 2 2 2 2 2 2 2 2 2 2 80 2 2 2 2 2 
2 2 2 2 2 15 6 2 2 2 2 2 2 2 2 2 2 2 2 2 20 2 22 23 24 25 26 2 2 2 30 31 2 2 2 2 36 2 38 39 2 2 2 43 2 2 2 2 2 2 2 51 2 2 2 2 2 2 58 2 60 61 2 63 64 2 2 2 2 2 2 2 2 2 2 75 2 2 2 2 2 
2 2 2 2 2 9 21 2 2 2 2 2 2 2 2 2 2 2 2 2 35 2 22 40 41 42 44 2 2 2 46 50 2 2 2 2 56 2 38 39 2 2 2 62 2 2 2 2 2 2 2 69 2 2 2 2 2 2 58 2 73 74 2 76 77 2 2 2 2 2 2 2 2 2 2 80 2 2 2 2 2 
2 2 2 2 2 10 6 2 2 2 2 2 2 2 2 2 2 2 2 2 20 2 38 23 24 25 26 2 2 2 30 31 2 2 2 2 36 2 38 38 2 2 2 43 2 2 2 2 2 2 2 51 2 2 2 2 2 2 38 2 60 61 2 63 64 2 2 2 2 2 2 2 2 2 2 75 2 2 2 2 2 
2 2 2 2 2 16 26 2 2 2 2 2 2 2 2 2 2 2 2 2 26 2 26 26 26 26 44 2 2 2 26 26 2 2 2 2 26 2 26 26 2 2 2 62 2 2 2 2 2 2 2 26 2 2 2 2 2 2 26 2 73 74 2 76 26 2 2 2 2 2 2 2 2 2 2 80 2 2 2 2 2 
2 2 2 2 2 10 6 2 2 2 2 2 2 2 2 2 2 2 2 2 36 2 37 23 24 25 44 2 2 2 30 51 2 2 2 2 36 2 57 59 2 2 2 63 2 2 2 2 2 2 2 51 2 2 2 2 2 2 72 2 60 75 2 63 64 2 2 2 2 2 2 2 2 2 2 75 2 2 2 2 2 
2 2 2 2 2 17 6 2 2 2 2 2 2 2 2 2 2 2 2 2 6 2 6 6 6 6 6 2 2 2 6 6 2 2 2 2 6 2 6 6 2 2 2 20 2 2 2 2 2 2 2 6 2 2 2 2 2 2 6 2 30 31 2 36 6 2 2 2 2 2 2 2 2 2 2 51 2 2 2 2 2 
2 2 2 2 2 18 27 2 2 2 2 2 2 2 2 2 2 2 2 2 27 2 27 27 27 27 27 2 2 2 27 27 2 2 2 2 27 2 27 27 2 2 2 27 2 2 2 2 2 2 2 27 2 2 2 2 2 2 27 2 27 27 2 27 27 2 2 2 2 2 2 2 2 2 2 27 2 2 2 2 2 
