0 1 2 3 4 5 6 7 8 
0 0 0 0 0 7 8 5 6 
0 1 2 3 4 5 6 7 8 
0 1 2 7 8 5 6 3 4 
6 4 3 2 1 0 0 7 8 
0 7 8 3 4 5 6 1 2 
0 1 2 3 4 5 6 7 8 
0 1 2 3 4 5 6 7 8 
0 1 2 3 4 5 6 7 8 
0 1 2 3 4 5 6 7 8 
0 1 2 3 4 5 6 7 8 
